INDEX VERSION 1.129+/home/ariel/Documents/workspace-sts-3.8.1.RELEASE/.metadata/.plugins/org.eclipse.jdt.core
3530540584.index
502732891.index
2120557505.index
249683986.index
1628687906.index
3512161136.index
2744878784.index
3485262699.index
1582156353.index
1089239932.index
3539432263.index
3883508318.index
813341167.index
2776194232.index
2592666440.index
925982370.index
3432569750.index
3066711521.index
3800650565.index
3458450050.index
821608291.index
2253745042.index
2359322674.index
